index.utf8.md
…
---

# R package

```r
fji_usa_2
```

```
## # A tibble: 736 x 3
##    product_shortname_english export_value_usd export_value_share
##    <chr>                                <int>              <dbl>
##  1 Water                            233431002              60   
##  2 Processed Fish                    61666883              15.8 
##  3 Non-fillet Fresh Fish             18503975               4.76
##  4 Raw Sugar                         12600118               3.24
##  5 Broadcasting Equipment            10967992               2.82
##  6 Perfume Plants                     7273321               1.87
##  7 Fish Fillets                       5540948               1.42
##  8 Unspecified                        4246687               1.09
##  9 Non-fillet Frozen Fish             4033516               1.04
## 10 Molasses                           3578212               0.92
## # … with 726 more rows
```
…
  filter(is_eu28 == 1) %>% 
  select(reporter_iso, export_value_usd, pct_to_eu28) %>% 
  arrange(-export_value_usd)
```

---

```r
ame_eu28_2
```

```
## # A tibble: 48 x 3
## # Groups:   reporter_iso [48]
##    reporter_iso export_value_usd pct_to_eu28
##    <chr>                   <dbl>       <dbl>
##  1 usa              406704170165      0.218 
##  2 can               51259679792      0.109 
##  3 bra               45042481104      0.174 
##  4 mex               34405957170      0.0711
##  5 chl               10937519973      0.144 
##  6 arg               10872575385      0.165 
##  7 per                8375757038      0.170 
##  8 col                8124020268      0.168 
##  9 cri                3922634462      0.246 
## 10 ecu                3917486407      0.169 
## # … with 38 more rows
```
…
